{
    "directory": "D:/Code/sync/wh40k/data/Warhammer 40,000 8th Edition",
    "catalogs": ["../../../wh40k-ynnari/Aeldari - Ynnari", "Aeldari - Harlequins", "Aeldari - Craftworlds", "Aeldari - Drukhari", "Aeldari - FW Corsairs"],
    "resultName": "Aeldari - Ynnari",
    "dynamic_config": "ynnari.dynamic_config.json",
    "actions": "ynnari.actions.json"
}