[
    {
        "action": "remove hard",
        "type": "categoryEntry",
        "name": "Faction: <Haemonculus Coven>",
        "except": [ "Venom", "Raider" ]
    },
    {
        "action": "remove",
        "name": "Urien Rakarth"
    },
    {
        "action": "remove",
        "name": "Drazhar"
    },
    {
        "action": "remove",
        "name": "Mandrakes"
    },
    {
        "action": "remove",
        "name": "Avatar of Khaine"
    },

    {
        "action": "remove",
        "name": "Power from Pain"
    },
    {
        "action": "remove",
        "name": "Ancient Doom"
    },
    {
        "action": "remove",
        "name": "Battle Focus"
    },
    {
        "action": "remove",
        "name": "Rising Crescendo"
    },

    {
        "action": "merge",
        "type": "categoryEntry",
        "attributes": [ "name" ]
    },
    {
        "action": "merge",
        "type": "selectionEntry",
        "attributes": [ "name", "type", "collective", "hidden" ],
        "children": [ "costs", "constraints" ]
    },

    {
        "action": "link",
        "type": "selectionEntry",
        "target":
        {
            "type": "rule",
            "name": "Strength from Death"
        },
        "condition":
        {
            "conditionType": "or",
            "conditions":
            [
                {
                    "conditionType": "hasLink",
                    "target":
                    {
                        "type": "categoryEntry",
                        "name": "Infantry"
                    }
                },
                {
                    "conditionType": "hasLink",
                    "target":
                    {
                        "type": "categoryEntry",
                        "name": "Biker"
                    }
                }
            ]
        }
    }
]
